…
``` r
df$course <- sapply(df$course, str_trim)
df$course <- df$course %>% str_replace("^engin.*","engineering") %>% str_replace("^fiqh.*","fiqh") %>% str_replace("^law.*", "laws") %>% str_replace(".*irkhs$", "kirkhs") %>% str_replace(".*nursing$", "nursing")
df %>% arrange(course) %>% group_by(course) %>% dplyr::summarise(count = n()) %>% arrange(-count)
```

    ## # A tibble: 35 × 2
    ##    course             count
    ##    <chr>              <int>
    ##  1 engineering           20
    ##  2 bcs                   18
    ##  3 bit                    9
    ##  4 koe                    6
    ##  5 biomedical science     4
    ##  6 benl                   3
    ##  7 kirkhs                 3
    ##  8 laws                   3
    ##  9 pendidikan islam       3
    ## 10 psychology             3
    ## # … with 25 more rows
…
